…
> *城市AQI变量中有1453个值，没有缺失值，其中平均值是85.53，中位数是76，最小值是26，最大值是500*

  - 按城市分组，计算各城市的AQI平均值

<!-- end list -->

``` r
avg_city_aqi <- aqi %>% 
  group_by(城市) %>% 
  summarise(城市AQI平均值 = mean(城市AQI))
avg_city_aqi
```

    ## # A tibble: 365 x 2
    ##    城市       城市AQI平均值
    ##    <chr>              <dbl>
    ##  1 阿坝州                29
    ##  2 阿克苏地区           500
    ##  3 阿拉善盟              42
    ##  4 阿勒泰地区            49
    ##  5 阿里地区              28
    ##  6 安康                  88
    ##  7 安庆                 150
    ##  8 安顺                  41
    ##  9 安阳                 100
    ## 10 鞍山                 177
    ## # … with 355 more rows
…
> *PM2.5变量有1453个值，没有缺失值，其中平均值是57.84，中位数是50，最小值是1，最大值是476*

  - 按城市分组，计算各城市的PM2.5平均值

<!-- end list -->

``` r
avg_city_pm2.5 <- aqi %>% 
  group_by(城市) %>% 
  summarise(城市PM2.5平均值 = mean(PM2.5))
avg_city_pm2.5
```

    ## # A tibble: 365 x 2
    ##    城市       城市PM2.5平均值
    ##    <chr>                <dbl>
    ##  1 阿坝州                2.67
    ##  2 阿克苏地区          248.  
    ##  3 阿拉善盟             23   
    ##  4 阿勒泰地区           16.5 
    ##  5 阿里地区              4   
    ##  6 安康                 64   
    ##  7 安庆                114.  
    ##  8 安顺                 27   
    ##  9 安阳                 75.2 
    ## 10 鞍山                134   
    ## # … with 355 more rows
…
> *PM10变量有1389个值，有64个缺失值，其中平均值是97.95，中位数是87，最小值是1，最大值是1135*

  - 按城市分组，计算各城市的PM10平均值

<!-- end list -->

``` r
avg_city_pm10 <- aqi %>% 
  group_by(城市) %>% 
  summarise(城市PM10平均值 = mean(PM10))
avg_city_pm10
```

    ## # A tibble: 365 x 2
    ##    城市       城市PM10平均值
    ##    <chr>               <dbl>
    ##  1 阿坝州               NA  
    ##  2 阿克苏地区         1045  
    ##  3 阿拉善盟             37.3
    ##  4 阿勒泰地区           53  
    ##  5 阿里地区              8.5
    ##  6 安康                 99.3
    ##  7 安庆                143  
    ##  8 安顺                 40.8
    ##  9 安阳                 96.4
    ## 10 鞍山                235  
    ## # … with 355 more rows
…
